{"success":true,"data":{"filters":[{"name":"Clothing","displayName":"Pants","type":"single","dataType":"string","description":"28,30,32,40","isActive":true,"sortOrder":1,"createdAt":"2025-09-02T16:05:04.035Z","updatedAt":"2025-09-02T19:25:48.458Z","categories":["68b7158df34225e75042e064","68b7158df34225e75042e069","68b7158ef34225e75042e082"],"categoryLevels":[2,3],"updatedBy":{"firstName":"Test","lastName":"Admin","id":"68b585af8a6b307061becf0e"},"id":"68b715b049e7de7df902a09d"},{"categoryLevels":[2,3],"categories":[],"name":"size","displayName":"Size","type":"single","dataType":"string","description":"Product size","isActive":true,"sortOrder":1,"createdAt":"2025-09-02T20:27:40.867Z","updatedAt":"2025-09-02T20:27:40.867Z","id":"68b7533c78d23e95891fbdb0"},{"name":"Clothing Men-Women","displayName":"T-shirts, Shirts","type":"single","dataType":"number","description":"XS,S,M,L,XL,XXL","isActive":true,"sortOrder":2,"createdBy":{"firstName":"Super","lastName":"Admin","id":"68b3a96148e0e8de350a091d"},"createdAt":"2025-09-02T17:42:52.188Z","updatedAt":"2025-09-02T21:30:07.677Z","updatedBy":{"firstName":"Super","lastName":"Admin","id":"68b3a96148e0e8de350a091d"},"categories":["68b7158df34225e75042e05a","68b7158df34225e75042e05f","68b7158ef34225e75042e078","68b7158ef34225e75042e07d"],"categoryLevels":[2,3],"id":"68b72c9c0734de7984c06c7c"},{"name":"color","displayName":"Color","type":"multiple","dataType":"string","description":"White,Grey,Green,Black,Pink,Yellow,Red","isActive":true,"sortOrder":2,"createdAt":"2025-09-02T16:05:04.223Z","updatedAt":"2025-09-02T19:25:37.454Z","categories":["68b7158bf34225e75042e027","68b7158cf34225e75042e032","68b7158df34225e75042e05a","68b7158df34225e75042e05f","68b7158df34225e75042e064","68b7158df34225e75042e069","68b7158cf34225e75042e037","68b7158ef34225e75042e06e","68b7158ef34225e75042e073","68b7158cf34225e75042e02c","68b7158cf34225e75042e041","68b7158ef34225e75042e078","68b7158ef34225e75042e07d","68b7158ef34225e75042e082","68b7158cf34225e75042e046","68b7158ef34225e75042e087","68b7158ef34225e75042e08c"],"categoryLevels":[2,3,1],"updatedBy":{"firstName":"Test","lastName":"Admin","id":"68b585af8a6b307061becf0e"},"id":"68b715b049e7de7df902a0b6"},{"name":"fit","displayName":"Fit","type":"single","dataType":"string","description":"Regular,Slim Fit,Skinny","isActive":true,"sortOrder":3,"createdAt":"2025-09-02T16:05:04.305Z","updatedAt":"2025-09-02T19:27:20.547Z","categories":["68b7158df34225e75042e064","68b7158df34225e75042e069","68b7158ef34225e75042e082","68b7158df34225e75042e05a","68b7158df34225e75042e05f","68b7158cf34225e75042e032","68b7158ef34225e75042e078","68b7158ef34225e75042e07d"],"categoryLevels":[2,3],"updatedBy":{"firstName":"Test","lastName":"Admin","id":"68b585af8a6b307061becf0e"},"id":"68b715b049e7de7df902a0c9"},{"name":"waist_size","displayName":"Waist Size","type":"single","dataType":"number","description":"Waist size in inches","isActive":true,"sortOrder":3,"createdAt":"2025-09-02T16:05:04.140Z","updatedAt":"2025-09-02T19:26:04.535Z","categories":[],"categoryLevels":[2,3],"updatedBy":{"firstName":"Test","lastName":"Admin","id":"68b585af8a6b307061becf0e"},"id":"68b715b049e7de7df902a0aa"},{"name":"fabric","displayName":"Fabric","type":"single","dataType":"string","description":"Cotton,Silk,Wool,Leather,Polyster","isActive":true,"sortOrder":4,"createdAt":"2025-09-02T16:05:04.385Z","updatedAt":"2025-09-02T19:29:05.611Z","categories":["68b7158cf34225e75042e032","68b7158df34225e75042e05a","68b7158df34225e75042e05f","68b7158df34225e75042e064","68b7158df34225e75042e069","68b7158cf34225e75042e041","68b7158ef34225e75042e078","68b7158ef34225e75042e07d","68b7158ef34225e75042e082"],"categoryLevels":[2,3,1],"updatedBy":{"firstName":"Test","lastName":"Admin","id":"68b585af8a6b307061becf0e"},"id":"68b715b049e7de7df902a0d3"},{"categoryLevels":[2,3],"categories":[],"name":"sleeve_type","displayName":"Sleeve Type","type":"single","dataType":"string","description":"Type of sleeve","isActive":true,"sortOrder":5,"createdAt":"2025-09-02T16:05:04.463Z","updatedAt":"2025-09-02T16:05:04.463Z","id":"68b715b049e7de7df902a0e5"},{"name":"neck_type","displayName":"Neck/Collar Type","type":"single","dataType":"string","description":"V-Neck, Round Neck","isActive":true,"sortOrder":6,"createdAt":"2025-09-02T16:05:04.534Z","updatedAt":"2025-09-02T19:29:49.385Z","categories":["68b7158df34225e75042e05a","68b7158ef34225e75042e078"],"categoryLevels":[2,3],"updatedBy":{"firstName":"Test","lastName":"Admin","id":"68b585af8a6b307061becf0e"},"id":"68b715b049e7de7df902a0ec"},{"name":"pattern","displayName":"Pattern","type":"single","dataType":"string","description":"Plain,Check","isActive":true,"sortOrder":7,"createdAt":"2025-09-02T16:05:04.608Z","updatedAt":"2025-09-02T19:30:44.556Z","categories":["68b7158df34225e75042e05a","68b7158df34225e75042e05f","68b7158ef34225e75042e078","68b7158ef34225e75042e07d"],"categoryLevels":[2,3],"updatedBy":{"firstName":"Test","lastName":"Admin","id":"68b585af8a6b307061becf0e"},"id":"68b715b049e7de7df902a0f5"}],"pagination":{"page":1,"limit":10,"total":20,"pages":2}}}